"메인 키","명칭","행정 시","행정 구","행정 동"
"BE_LiST36-0206","Mongchon Museum of History","Seoul","Songpa-gu","Oryun-dong"
"BE_LiST36-0207","Folk Museum","Seoul","Jongno-gu","Cheongunhyoja-dong"
"BE_LiST36-0208","Park Eul Bok Embroidery Museum","Seoul","Gangbuk-gu","Ui-dong"
"BE_LiST36-0209","Owl Antiques Museum","Seoul","Jongno-gu","Samcheong-dong"
"BE_LiST36-0210","Bukchon Traditional Culture Center","Seoul","Jongno-gu","Samcheong-dong"
"BE_LiST36-0211","Samsung Museum of Publishing","Seoul","Jongno-gu","Pyeongchang-dong"
"BE_LiST36-0212","Sangmyeong University Museum","Seoul","Jongno-gu","Pyeongchang-dong"
"BE_LiST36-0213","Life Science Museum","Seoul","Yangcheon-gu","Mok1-dong"
"BE_LiST36-0214","The Seodaemun Museum of Natural History","Seoul","Seodaemun-gu","Yeonhui-dong"
"BE_LiST36-0215","Seodaemun Prison History Hall","Seoul","Seodaemun-gu","Cheonyeon-dong"
"BE_LiST36-0216","Korean Customs Museum","Seoul","Gangnam-gu","Nonhyeon2-dong"
"BE_LiST36-0217","World Jewellery Museuml","Seoul","Jongno-gu","Samcheong-dong"
"BE_LiST36-0218","Ceramuse Porcelain Museum","Seoul","Jongno-gu","Pyeongchang-dong"
"BE_LiST36-0219","Waterworks Museum","Seoul","Seongdong-gu","Seongsu1ga1-dong"
"BE_LiST36-0220","Shuim Moseum","Seoul","Jongno-gu","Buam-dong"
"BE_LiST36-0221","Silkroad Museum","Seoul","Jongno-gu","Samcheong-dong"
"BE_LiST36-0222","National Children＇s Museum","Seoul","Jongno-gu","Cheongunhyoja-dong"
"BE_LiST36-0223","Young-In Literary House","Seoul","Jongno-gu","Pyeongchang-dong"
"BE_LiST36-0224","Diplomatic History Exhibit?Hall","Seoul","Seocho-gu","Seocho2-dong"
"BE_LiST36-0225","The War Memorial of Korea","Seoul","Yongsan-gu","Namyeong-dong"
"BE_LiST36-0226","Jeoldusan Martyrs' Shrine","Seoul","Mapo-gu","Hapjeong-dong"
"BE_LiST36-0227","Securities Museum","Seoul","Yeongdeungpo-gu","Yeoui-dong"
"BE_LiST36-0228","Museum of Korean Indigenous Straw and Plant Handicraft","Seoul","Jongno-gu","Hyehwa-dong"
"BE_LiST36-0229","Cheonggyecheon Museum","Seoul","Seongdong-gu","Majang-dong"
"BE_LiST36-0230","Postal Memorial Hall","Seoul","Jongno-gu","Jongno1.2.3.4ga-dong"
"BE_LiST36-0231","Toykino Toy Museum","Seoul","Jongno-gu","Samcheong-dong"
"BE_LiST36-0232","Tibetan Museum","Seoul","Jongno-gu","Cheongunhyoja-dong"
"BE_LiST36-0233","Abraham Park & Kenneth Vine Collection","Seoul","Guro-gu","Oryu2-dong"
"BE_LiST36-0234","Korea Furniture Museum","Seoul","Seongbuk-gu","Seongbuk-dong"
"BE_LiST36-0235","Korea Film Museum","Seoul","Mapo-gu","Sangam-dong"
"BE_LiST36-0236","Bank of Korea Money Museum","Seoul","Jung-gu","Sogong-dong"
"BE_LiST36-0237","Seoul Baekje Museum","Seoul","Songpa-gu","Oryun-dong"
"BE_LiST36-0238","Heonjun Museum","Seoul","Gangseo-gu","Gayang2-dong"
"BE_LiST36-0239","Horim Museum","Seoul","Gwanak-gu","Miseong-dong"
"BE_LiST36-0240","Hwajeong Museum","Seoul","Jongno-gu","Pyeongchang-dong"
"BE_LiST36-0001","LUX Gallery","Seoul","Jongno-gu","Jongno1.2.3.4ga-dong"
"BE_LiST36-0002","PKM Gallery","Seoul","Jongno-gu","Samcheong-dong"
"BE_LiST36-0003","SJ Gallery","Seoul","Gangnam-gu","Yeoksam2-dong"
"BE_LiST36-0004","UUL National Art Museum Seoul ","Seoul","Jongno-gu","Samcheong-dong"
"BE_LiST36-0005","Gana Art Space","Seoul","Jongno-gu","Jongno1.2.3.4ga-dong"
"BE_LiST36-0006","Gajin Gallery","Seoul","Jongno-gu","Cheongunhyoja-dong"
"BE_LiST36-0007","Gansong Art Museum","Seoul","Seongbuk-gu","Seongbuk-dong"
"BE_LiST36-0008","Gangbuk City Art Museum","Seoul","Nowon-gu","Junggye2.3-dong"
"BE_LiST36-0009","Gallery Godo","Seoul","Jongno-gu","Jongno1.2.3.4ga-dong"
"BE_LiST36-0010","Gallery Nayo","Seoul","Seongbuk-gu","Seongbuk-dong"
"BE_LiST36-0011","Gallery Dos","Seoul","Jongno-gu","Samcheong-dong"
"BE_LiST36-0012","Gallery Sejul","Seoul","Jongno-gu","Pyeongchang-dong"
"BE_LiST36-0013","Gallery Soo","Seoul","Seocho-gu","Yangjae2-dong"
"BE_LiST36-0014","Gallery Soo","Seoul","Jongno-gu","Jongno1.2.3.4ga-dong"
"BE_LiST36-0015","Gallery Simon","Seoul","Jongno-gu","Sajik-dong"
"BE_LiST36-0016","Gallery Gallery Epoque","Seoul","Jongno-gu","Gahoe-dong"
"BE_LiST36-0017","Gallery Won","Seoul","Gangnam-gu","Cheongdam-dong"
"BE_LiST36-0018","Gallery","Seoul","Gangnam-gu","Sinsa-dong"
"BE_LiST36-0019","Gallery Pici","Seoul","Gangnam-gu","Cheongdam-dong"
"BE_LiST36-0020","Gallery Fifteen","Seoul","Jongno-gu","Samcheong-dong"
"BE_LiST36-0021","Gallery Hyundai","Seoul","Jongno-gu","Samcheong-dong"
"BE_LiST36-0022","Gallery Hyundai","Seoul","Gangnam-gu","Apgujeong-dong"
"BE_LiST36-0023","Memorial Hall for Gyeomjae Jeong Seon","Seoul","Gangseo-gu","Gayang1-dong"
"BE_LiST36-0024","Kyungin Museum of Fine Art","Seoul","Jongno-gu","Jongno1.2.3.4ga-dong"
"BE_LiST36-0025","Kukje Gallery","Seoul","Jongno-gu","Samcheong-dong"
"BE_LiST36-0026","Grim Sarang","Seoul","Seodaemun-gu","Hongeun2-dong"
"BE_LiST36-0027","Kumho Museum of Art","Seoul","Jongno-gu","Samcheong-dong"
"BE_LiST36-0028","Kimdaljin Art Archives and Museum ","Seoul","Jongno-gu","Cheongunhyoja-dong"
"BE_LiST36-0029","Kim Chong Yung Museum","Seoul","Jongno-gu","Pyeongchang-dong"
"BE_LiST36-0030","Kim Collection","Seoul","Jongno-gu","Pyeongchang-dong"
"BE_LiST36-0031","Kim Hyun Joo Gallery","Seoul","Jongno-gu","Samcheong-dong"
"BE_LiST36-0032","No Art Gallery","Seoul","Jongno-gu","Jongno1.2.3.4ga-dong"
"BE_LiST36-0033","Dado Art Gallery","Seoul","Gangnam-gu","Sinsa-dong"
"BE_LiST36-0034","Diamond Gallery","Seoul","Seongbuk-gu","Seongbuk-dong"
"BE_LiST36-0035","Daelim Museum ","Seoul","Jongno-gu","Sajik-dong"
"BE_LiST36-0036","Daelim Gallery","Seoul","Jongno-gu","Jongno1.2.3.4ga-dong"
"BE_LiST36-0037","Art Space Pool","Seoul","Jongno-gu","Pyeongchang-dong"
"BE_LiST36-0038","Dukwon Gallery","Seoul","Jongno-gu","Jongno1.2.3.4ga-dong"
"BE_LiST36-0039","Donsanbang Gallery","Seoul","Jongno-gu","Jongno1.2.3.4ga-dong"
"BE_LiST36-0040","Dia Gallery","Seoul","Jongno-gu","Gahoe-dong"
"BE_LiST36-0041","Rodin Gallery","Seoul","Jung-gu","Sogong-dong"
"BE_LiST36-0042","Lumier Gallery","Seoul","Jongno-gu","Sajik-dong"
"BE_LiST36-0043","Leeahn Gallery","Seoul","Jongno-gu","Cheongunhyoja-dong"
"BE_LiST36-0044","Modern Gallery","Seoul","Jongno-gu","Jongno1.2.3.4ga-dong"
"BE_LiST36-0045","Moin Gallery","Seoul","Jongno-gu","Jongno1.2.3.4ga-dong"
"BE_LiST36-0046","Monghwan ","Seoul","Seodaemun-gu","Sinchon-dong"
"BE_LiST36-0047","Munhwa Seohwasa","Seoul","Jongno-gu","Jongno1.2.3.4ga-dong"
"BE_LiST36-0048","Milim Art Shop","Seoul","Yongsan-gu","Hangangno-dong"
"BE_LiST36-0049","BJN Gallery","Seoul","Jongno-gu","Pyeongchang-dong"
"BE_LiST36-0050","Paik Hae Young Gallery","Seoul","Yongsan-gu","Itaewon1-dong"
"BE_LiST36-0051","Seokeun Museum","Seoul","Seongbuk-gu","Seongbuk-dong"
"BE_LiST36-0052","Bukchon Museum","Seoul","Jongno-gu","Gahoe-dong"
"BE_LiST36-0053","Vit Gallery","Seoul","Jongno-gu","Samcheong-dong"
"BE_LiST36-0054","Leeum Samsung Museum of Art","Seoul","Yongsan-gu","Hannam-dong"
"BE_LiST36-0055","SeMA Gyeonghuigung of Seoul Museum of Art","Seoul","Jongno-gu","Sajik-dong"
"BE_LiST36-0056","Seoul Auction Center","Seoul","Jongno-gu","Pyeongchang-dong"
"BE_LiST36-0057","Seoha Gallery","Seoul","Jongno-gu","Jongno1.2.3.4ga-dong"
"BE_LiST36-0058","Seohwa Gallery","Seoul","Yongsan-gu","Hannam-dong"
"BE_LiST36-0059","Sun Gallery","Seoul","Jongno-gu","Samcheong-dong"
"BE_LiST36-0060","Gallery Seop","Seoul","Jongno-gu","Jongno1.2.3.4ga-dong"
"BE_LiST36-0061","Semi Gallery","Seoul","Jongno-gu","Ihwa-dong"
"BE_LiST36-0062","Alternative Art Space Sonahmoo","Seoul","Jongno-gu","Gahoe-dong"
"BE_LiST36-0063","The Soma Art Museum","Seoul","Songpa-gu","Oryun-dong"
"BE_LiST36-0064","Soo Pottery Workshop","Seoul","Mapo-gu","Yeonnam-dong"
"BE_LiST36-0065","Space Gallery","Seoul","Gangnam-gu","Cheongdam-dong"
"BE_LiST36-0066","Nanji Art Studio","Seoul","Mapo-gu","Sangam-dong"
"BE_LiST36-0067","Gallery SeeMuse","Seoul","Jongno-gu","Pyeongchang-dong"
"BE_LiST36-0068","THINKTHINK Art Museum","Seoul","Gangnam-gu","Samseong2-dong"
"BE_LiST36-0069","Arisu Art Town","Seoul","Jongno-gu","Jongno1.2.3.4ga-dong"
"BE_LiST36-0070","Art Side","Seoul","Jongno-gu","Sajik-dong"
"BE_LiST36-0071","Art Square","Seoul","Gangnam-gu","Dogok1-dong"
"BE_LiST36-0072","Art and Asset","Seoul","Mapo-gu","Seogyo-dong"
"BE_LiST36-0073","Art Park","Seoul","Jongno-gu","Samcheong-dong"
"BE_LiST36-0074","Africaho Museum","Seoul","Jongno-gu","Samcheong-dong"
"BE_LiST36-0075","Urban Art","Seoul","Gangnam-gu","Sinsa-dong"
"BE_LiST36-0076","Gallery AM","Seoul","Jongno-gu","Samcheong-dong"
"BE_LiST36-0077","Art Museum for Educating Gifted Children ","Seoul","Jongno-gu","Pyeongchang-dong"
"BE_LiST36-0078","Yewon Gallery","Seoul","Gangnam-gu","Daechi4-dong"
"BE_LiST36-0079","Yein Gallery","Seoul","Jongno-gu","Jongno1.2.3.4ga-dong"
"BE_LiST36-0080","Gallery Yeh: Forerunner of the Gangnam Art Scene","Seoul","Gangnam-gu","Sinsa-dong"
"BE_LiST36-0081","Yoo Art Space","Seoul","Gangnam-gu","Cheongdam-dong"
"BE_LiST36-0082","Yeemock Gallery","Seoul","Jongno-gu","Gahoe-dong"
"BE_LiST36-0083","Gallery is","Seoul","Jongno-gu","Jongno1.2.3.4ga-dong"
"BE_LiST36-0084","Insa Art Space","Seoul","Jongno-gu","Gahoe-dong"
"BE_LiST36-0085","Insa Art Center","Seoul","Jongno-gu","Jongno1.2.3.4ga-dong"
"BE_LiST36-0086","Illang Art Museum","Seoul","Jongno-gu","Pyeongchang-dong"
"BE_LiST36-0087","153 Gallery","Seoul","Seocho-gu","Banpo4-dong"
"BE_LiST36-0088","Zaha Museum","Seoul","Jongno-gu","Buam-dong"
"BE_LiST36-0089","Jang Eun Sun Gallery","Seoul","Jongno-gu","Jongno1.2.3.4ga-dong"
"BE_LiST36-0090","Jeongpyogu Gallery","Seoul","Jung-gu","Cheonggu-dong"
"BE_LiST36-0091","Jo Art Gallery","Seoul","Jongno-gu","Gahoe-dong"
"BE_LiST36-0092","Chosun Art Gallery","Seoul","Gangnam-gu","Samseong1-dong"
"BE_LiST36-0093","Jinsun Art Gallery","Seoul","Jongno-gu","Samcheong-dong"
"BE_LiST36-0094","Jean Gallery","Seoul","Jongno-gu","Sajik-dong"
"BE_LiST36-0095","Chungjark Gallery","Seoul","Gangnam-gu","Sinsa-dong"
"BE_LiST36-0096","Chung Art Gallery","Seoul","Gangnam-gu","Cheongdam-dong"
"BE_LiST36-0097","Chodae Art Gallery","Seoul","Jongno-gu","Jongno1.2.3.4ga-dong"
"BE_LiST36-0098","Casa","Seoul","Jongno-gu","Sajik-dong"
"BE_LiST36-0099","CAIS Gallery","Seoul","Gangnam-gu","Cheongdam-dong"
"BE_LiST36-0100","Gallery Kn","Seoul","Gangnam-gu","Cheongdam-dong"
"BE_LiST36-0101","Gallery Kunstdoc","Seoul","Jongno-gu","Cheongunhyoja-dong"
"BE_LiST36-0102","Sun Gypsography","Seoul","Gwanak-gu","Boramae-dong"
"BE_LiST36-0103","Tonin Gallery","Seoul","Gangnam-gu","Samseong1-dong"
"BE_LiST36-0104","Total Museum of Contemporary Art","Seoul","Jongno-gu","Pyeongchang-dong"
"BE_LiST36-0105","Public Art","Seoul","Yongsan-gu","Hannam-dong"
"BE_LiST36-0106","Pyo Gallery","Seoul","Yongsan-gu","Itaewon2-dong"
"BE_LiST36-0107","Hyundai Gallery","Seoul","Jongno-gu","Samcheong-dong"
"BE_LiST36-0108","Whanki Museum","Seoul","Jongno-gu","Buam-dong"
"BE_LiST36-0109","Mediaplan","Seoul","Songpa-gu","Munjeong1-dong"
"BE_LiST36-0110","MBC Academy","Seoul","Songpa-gu","Jamsilbon-dong"
"BE_LiST36-0111","NH Art Hall","Seoul","Jung-gu","Sogong-dong"
"BE_LiST36-0112","Gangnam Sports and Culture Center","Seoul","Gangnam-gu","Suseo-dong"
"BE_LiST36-0113","Gyemong Culture Class ","Seoul","Gangnam-gu","Yeoksam2-dong"
"BE_LiST36-0114","Geumcheon-gu Culture and Sports Center","Seoul","Geumcheon-gu","Doksan4-dong"
"BE_LiST36-0115","Gildong Ecology and Culture Center","Seoul","Gangdong-gu","Dunchon2-dong"
"BE_LiST36-0116","Ggumuisup Art Center","Seoul","Gangbuk-gu","Beon3-dong"
"BE_LiST36-0117","Grand Theater","Seoul","Seocho-gu","Yangjae2-dong"
"BE_LiST36-0118","Daechi Welfare and Culture Center","Seoul","Gangnam-gu","Daechi2-dong"
"BE_LiST36-0119","The Art Academy of Korea Artist Center","Seoul","Yangcheon-gu","Mok1-dong"
"BE_LiST36-0120","Dongbu Women's Culture Center","Seoul","Jongno-gu","Changsin2-dong"
"BE_LiST36-0121","Information and Culture Center of Northeast Asia","Seoul","Jongno-gu","Jongno1.2.3.4ga-dong"
"BE_LiST36-0122","Mapo Arts Center","Seoul","Mapo-gu","Daheung-dong"
"BE_LiST36-0123","Mapo Lifelong Learning Center Ahyeon Branch","Seoul","Mapo-gu","Gongdeok-dong"
"BE_LiST36-0124","Coste Hall of Myeongdong Cathedral","Seoul","Jung-gu","Myeong-dong"
"BE_LiST36-0125","Mokdong Culture and Sports Center","Seoul","Yangcheon-gu","Mok2-dong"
"BE_LiST36-0126","Culture Center","Seoul","Seocho-gu","Banpo3-dong"
"BE_LiST36-0127","Academy for Cultural Heritage","Seoul","Gangnam-gu","Daechi2-dong"
"BE_LiST36-0128","Michuhol Arts Promotion Association","Seoul","Jongno-gu","Pyeongchang-dong"
"BE_LiST36-0129","Bong-eun Culture Center","Seoul","Gangnam-gu","Samseong1-dong"
"BE_LiST36-0130","Bukchon Traditional Culture Center","Seoul","Jongno-gu","Gahoe-dong"
"BE_LiST36-0131","Sangsang Art Hall","Seoul","Gangnam-gu","Daechi2-dong"
"BE_LiST36-0132","Seokcheon Culture Center","Seoul","Jongno-gu","Hyehwa-dong"
"BE_LiST36-0133","Seongdong Culture Center","Seoul","Seongdong-gu","Haengdang1-dong"
"BE_LiST36-0134","Seongbuk Art Creativity Center","Seoul","Seongbuk-gu","Jongam-dong"
"BE_LiST36-0135","Songjung Culture Information Center","Seoul","Gangbuk-gu","Songjung-dong"
"BE_LiST36-0136","Suguksa Temple Culture Center","Seoul","Eunpyeong-gu","Gusan-dong"
"BE_LiST36-0137","Yangcheon Culture Center","Seoul","Yangcheon-gu","Sinjeong6-dong"
"BE_LiST36-0138","Yongsan Women Culture Center","Seoul","Yongsan-gu","Hannam-dong"
"BE_LiST36-0139","Jamwon Welfare Culture Center","Seoul","Seocho-gu","Jamwon-dong"
"BE_LiST36-0140","Prugio Valley","Seoul","Gangnam-gu","Daechi2-dong"
"BE_LiST36-0141","Pulib Culture Learning Center","Seoul","Jongno-gu","Jongno5.6ga-dong"
"BE_LiST36-0142","Pulib Culture Learning Center","Seoul","Songpa-gu","Songpa2-dong"
"BE_LiST36-0143","Korea Culture Center Guro Branch","Seoul","Guro-gu","Guro3-dong"
"BE_LiST36-0144","Haegong Culture & Sports Center","Seoul","Gangdong-gu","Cheonho2-dong"
"BE_LiST36-0145","Horim Art Center","Seoul","Gangnam-gu","Apgujeong-dong"
"BE_LiST36-0146","KT&G Sangsangmadang","Seoul","Mapo-gu","Seogyo-dong"
"BE_LiST36-0147","Cafeteria Naru","Seoul","Yeongdeungpo-gu","Yangpyeong2-dong"
"BE_LiST36-0148","Nowon Arts Center","Seoul","Nowon-gu","Junggyebon-dong"
"BE_LiST36-0149","Dom Art Hall","Seoul","Gwangjin-gu","Neung-dong"
"BE_LiST36-0150","Dongsung Art Center","Seoul","Jongno-gu","Ihwa-dong"
"BE_LiST36-0151","Doulos Theater","Seoul","Jongno-gu","Jongno1.2.3.4ga-dong"
"BE_LiST36-0152","Myungbo Art Hall","Seoul","Jung-gu","Euljiro-dong"
"BE_LiST36-0153","Firefly?Eco Center","Seoul","Yeongdeungpo-gu","Yeoui-dong"
"BE_LiST36-0154","Baekam Art Hall","Seoul","Gangnam-gu","Samseong1-dong"
"BE_LiST36-0155","Bellagium","Seoul","Gangnam-gu","Daechi2-dong"
"BE_LiST36-0156","Bukchon Changwoo Theater","Seoul","Jongno-gu","Gahoe-dong"
"BE_LiST36-0157","Sanwoollim Theatre Company","Seoul","Mapo-gu","Seogyo-dong"
"BE_LiST36-0158","Samilro Changgo Theatre ","Seoul","Jung-gu","Myeong-dong"
"BE_LiST36-0159","Urisori Permanent Stage","Seoul","Mapo-gu","Seogyo-dong"
"BE_LiST36-0160","Seoul Fashion Creative Studio","Seoul","Jung-gu","Sindang-dong"
"BE_LiST36-0161","Sigong Art Space","Seoul","Jongno-gu","Pyeongchang-dong"
"BE_LiST36-0162","Art Center K","Seoul","Jongno-gu","Hyehwa-dong"
"BE_LiST36-0163","Theater Egg & Nucleus","Seoul","Jongno-gu","Ihwa-dong"
"BE_LiST36-0164","Amsa Children Theater","Seoul","Gangdong-gu","Amsa3-dong"
"BE_LiST36-0165","Open Theater","Seoul","Jongno-gu","Hyehwa-dong"
"BE_LiST36-0166","Yeongdeungpo Art Hall","Seoul","Yeongdeungpo-gu","Dangsan1-dong"
"BE_LiST36-0167","Youngsan Culture Foundation","Seoul","Seocho-gu","Yangjae1-dong"
"BE_LiST36-0168","Irang Theater","Seoul","Jongno-gu","Ihwa-dong"
"BE_LiST36-0169","?Joungbo Theater","Seoul","Jongno-gu","Ihwa-dong"
"BE_LiST36-0170","Joongang Theater","Seoul","Jung-gu","Jangchung-dong"
"BE_LiST36-0171","Rolling Hall Hongdae","Seoul","Mapo-gu","Seogyo-dong"
"BE_LiST36-0172","KBS","Seoul","Yeongdeungpo-gu","Yeoui-dong"
"BE_LiST36-0173","SBS","Seoul","Yangcheon-gu","Mok1-dong"
"BE_LiST36-0174","SBS Sports Channel Golf Drama Plus","Seoul","Songpa-gu","Oryun-dong"
"BE_LiST36-0175","Traffic Broadcasting Network","Seoul","Jung-gu","Sindang5-dong"
"BE_LiST36-0176","Gwanak broadcasting Co.","Seoul","Gwanak-gu","Sinsa-dong"
"BE_LiST36-0177","Seocho Broadcasting Co.","Seoul","Seocho-gu","Bangbae2-dong"
"BE_LiST36-0178","Central Multi Broadcasting Co.","Seoul","Dongdaemun-gu","Jegi-dong"
"BE_LiST36-0179","Qrix Nowon Broadcasting","Seoul","Nowon-gu","Sanggye2-dong"
"BE_LiST36-0180","Seoul Traffic Broadcasting Co.","Seoul","Jung-gu","Pil-dong"
"BE_LiST36-0181","Far East Broadcasting Co.","Seoul","Mapo-gu","Seogang-dong"
"BE_LiST36-0182","Far East Broadcasting Co.","Seoul","Yeongdeungpo-gu","Yeongdeungpo-dong"
"BE_LiST36-0183","Won-buddhism Broadcasting System","Seoul","Dongjak-gu","Heukseok-dong"
"BE_LiST36-0184","ClubAnswer","Seoul","Gangnam-gu","Cheongdam-dong"
"BE_LiST36-0185","YMCA Ggumnamu Cinema","Seoul","Gwangjin-gu","Neung-dong"
"BE_LiST36-0186","Globe Theater","Seoul","Jongno-gu","Ihwa-dong"
"BE_LiST36-0187","Dongsung Stage Theater","Seoul","Jongno-gu","Hyehwa-dong"
"BE_LiST36-0188","Samhyeongjae Theater","Seoul","Jongno-gu","Ihwa-dong"
"BE_LiST36-0189","Samtoh Bluebird Theater","Seoul","Jongno-gu","Ihwa-dong"
"BE_LiST36-0190","Sundol Theatre","Seoul","Jongno-gu","Hyehwa-dong"
"BE_LiST36-0191","Art Theater Mun","Seoul","Jongno-gu","Hyehwa-dong"
"BE_LiST36-0192","Oasis Theater","Seoul","Jongno-gu","Ihwa-dong"
"BE_LiST36-0193","Post Theater","Seoul","Mapo-gu","Seogang-dong"
"BE_LiST36-0194","Hakjeon Green Theater","Seoul","Jongno-gu","Ihwa-dong"
"BE_LiST36-0195","Haechi Hall","Seoul","Jung-gu","Myeong-dong"
"BE_LiST36-0196","Gangbuk Culture & Art Center","Seoul","Gangbuk-gu","Insu-dong"
"BE_LiST36-0197","Olympic Center","Seoul","Songpa-gu","Oryun-dong"
"BE_LiST36-0198","Yongsan Art Center","Seoul","Yongsan-gu","Itaewon1-dong"
"BE_LiST36-0199","Police Heritage Museum","Seoul","Jongno-gu","Sajik-dong"
"BE_LiST36-0200","The National Palace Museum of Korea","Seoul","Jongno-gu","Cheongunhyoja-dong"
"BE_LiST36-0201","The National Museum of Korea","Seoul","Yongsan-gu","Seobinggo-dong"
"BE_LiST36-0202","National Museum of Korean Contemporary History","Seoul","Jongno-gu","Sajik-dong"
"BE_LiST36-0203","Sword Museum","Seoul","Jongno-gu","Pyeongchang-dong"
"BE_LiST36-0204","The Memorial to the Patriot Yun Bonggil","Seoul","Seocho-gu","Yangjae2-dong"
"BE_LiST36-0205","Myeongin Museum","Seoul","Jongno-gu","Gahoe-dong"