기준일자,권역명,항목명,경보단계명,발령일자,발령시간,발령농도(μg/m³),해제일자,해제시간,해제농도(μg/m³)
2020-05-11,중부권,PM10,주의보,2020-05-11,13:00,190,2020-05-12,01:00,79
2020-05-11,북부권,PM10,주의보,2020-05-11,12:00,192,2020-05-12,00:00,56
2020-05-11,동부권,PM10,주의보,2020-05-11,13:00,176,2020-05-12,01:00,88
2020-05-11,남부권,PM10,주의보,2020-05-11,14:00,156,2020-05-12,01:00,96
2020-04-22,중부권,PM10,주의보,2020-04-22,09:00,181,2020-04-22,16:00,95
2020-04-22,북부권,PM10,주의보,2020-04-22,07:00,197,2020-04-22,15:00,94
2020-04-22,동부권,PM10,주의보,2020-04-22,09:00,214,2020-04-22,16:00,93
2020-04-22,남부권,PM10,주의보,2020-04-22,10:00,168,2020-04-22,17:00,86
2020-03-09,남부권,PM25,주의보,2020-03-09,01:00,76,2020-03-10,12:00,25
2020-03-09,중부권,PM25,주의보,2020-03-09,10:00,78,2020-03-09,20:00,34
2020-02-22,남부권,PM25,주의보,2020-02-22,11:00,85,2020-02-22,16:00,32
2020-02-22,남부권,PM10,주의보,2020-02-22,11:00,159,2020-02-22,15:00,93
2020-02-22,중부권,PM25,주의보,2020-02-22,10:00,85,2020-02-22,17:00,33
2020-02-22,중부권,PM10,주의보,2020-02-22,10:00,161,2020-02-22,16:00,91
2020-02-22,동부권,PM25,주의보,2020-02-22,11:00,79,2020-02-22,17:00,29
2020-02-22,북부권,PM10,주의보,2020-02-22,11:00,154,2020-02-22,14:00,88
2020-02-22,동부권,PM10,주의보,2020-02-22,10:00,161,2020-02-22,15:00,76
2020-02-22,북부권,PM25,주의보,2020-02-22,10:00,85,2020-02-22,16:00,27
2020-02-21,동부권,PM25,주의보,2020-02-21,12:00,79,2020-02-21,22:00,30
2020-02-21,북부권,PM25,주의보,2020-02-21,12:00,76,2020-02-21,17:00,31
2020-02-21,남부권,PM25,주의보,2020-02-21,10:00,83,2020-02-21,23:00,28
2020-02-14,남부권,PM25,주의보,2020-02-14,17:00,77,2020-02-16,03:00,11
2020-02-14,중부권,PM25,주의보,2020-02-14,17:00,78,2020-02-16,01:00,23
2020-02-14,동부권,PM25,주의보,2020-02-14,21:00,76,2020-02-16,03:00,16
2020-02-02,동부권,PM25,주의보,2020-02-02,12:00,81,2020-02-02,20:00,33
2020-02-01,남부권,PM25,주의보,2020-02-01,20:00,79,2020-02-03,02:00,31
2020-02-01,중부권,PM25,주의보,2020-02-01,19:00,78,2020-02-02,19:00,32
2020-01-19,남부권,PM25,주의보,2020-01-19,15:00,88,2020-01-20,12:00,29
2020-01-19,중부권,PM25,주의보,2020-01-19,14:00,88,2020-01-20,11:00,26
2020-01-03,남부권,PM25,주의보,2020-01-03,11:00,81,2020-01-04,17:00,32
2019-12-11,북부권,PM10,주의보,2019-12-11,10:00,163,2019-12-11,14:00,92
2019-12-11,중부권,PM10,주의보,2019-12-11,11:00,164,2019-12-11,15:00,92
2019-12-10,북부권,PM10,주의보,2019-12-10,17:00,157,2019-12-11,03:00,95
2019-12-10,남부권,PM25,주의보,2019-12-10,15:00,81,2019-12-11,17:00,24
2019-12-10,중부권,PM25,주의보,2019-12-10,13:00,101,2019-12-11,16:00,28
2019-12-10,중부권,PM10,주의보,2019-12-10,16:00,154,2019-12-11,03:00,98
2019-12-10,북부권,PM25,주의보,2019-12-10,13:00,97,2019-12-11,16:00,31
2019-12-10,동부권,PM25,주의보,2019-12-10,14:00,83,2019-12-11,17:00,30
2019-11-18,남부권,PM10,주의보,2019-11-18,14:00,181,2019-11-18,20:00,90
2019-11-18,동부권,PM10,주의보,2019-11-18,14:00,170,2019-11-18,20:00,74
2019-11-18,중부권,PM10,주의보,2019-11-18,13:00,191,2019-11-18,19:00,83
2019-11-18,북부권,PM10,주의보,2019-11-18,12:00,182,2019-11-18,20:00,81
2019-11-03,남부권,PM25,주의보,2019-11-03,13:00,78,2019-11-03,16:00,33
2019-10-31,중부권,PM10,주의보,2019-10-31,18:00,174,2019-11-01,12:00,92
2019-10-31,북부권,PM10,주의보,2019-10-31,19:00,188,2019-11-01,06:00,74
2019-10-31,동부권,PM10,주의보,2019-10-31,18:00,174,2019-11-01,09:00,99
2019-10-29,북부권,PM10,주의보,2019-10-29,13:00,151,2019-10-29,16:00,84
2019-05-25,북부권,PM25,주의보,2019-05-25,02:00,78,2019-05-25,15:00,28
2019-05-25,중부권,PM25,주의보,2019-05-25,01:00,81,2019-05-25,13:00,34
2019-05-25,동부권,PM25,주의보,2019-05-25,06:00,75,2019-05-25,15:00,32
2019-05-25,남부권,PM25,주의보,2019-05-25,01:00,87,2019-05-25,14:00,32
2019-05-04,중부권,PM25,주의보,2019-05-04,05:00,76,2019-05-05,14:00,29
2019-05-04,남부권,PM25,주의보,2019-05-04,06:00,77,2019-05-05,14:00,33
2019-05-04,북부권,PM25,주의보,2019-05-04,10:00,77,2019-05-04,19:00,34
2019-04-22,중부권,PM10,주의보,2019-04-22,15:00,167,2019-04-23,11:00,84
2019-04-22,동부권,PM10,주의보,2019-04-22,20:00,157,2019-04-23,05:00,99
2019-04-22,남부권,PM10,주의보,2019-04-22,15:00,172,2019-04-23,12:00,86
2019-04-05,남부권,PM10,주의보,2019-04-05,15:00,195,2019-04-05,21:00,92
2019-04-05,동부권,PM10,주의보,2019-04-05,17:00,162,2019-04-05,19:00,84
2019-04-05,중부권,PM10,주의보,2019-04-05,15:00,221,2019-04-05,19:00,93
2019-03-28,남부권,PM25,주의보,2019-03-28,02:00,84,2019-03-28,19:00,29
2019-03-28,동부권,PM25,주의보,2019-03-28,01:00,80,2019-03-28,16:00,33
2019-03-27,중부권,PM25,주의보,2019-03-27,09:00,78,2019-03-28,17:00,29
2019-03-27,북부권,PM25,주의보,2019-03-27,10:00,79,2019-03-28,15:00,30
2019-03-20,남부권,PM25,주의보,2019-03-20,01:00,78,2019-03-21,01:00,32
2019-03-20,중부권,PM25,주의보,2019-03-20,10:00,85,2019-03-21,02:00,27
2019-03-20,동부권,PM25,주의보,2019-03-20,02:00,77,2019-03-21,00:00,33
2019-03-20,북부권,PM25,주의보,2019-03-20,10:00,91,2019-03-21,02:00,29
2019-03-12,중부권,PM25,주의보,2019-03-12,10:00,86,2019-03-12,16:00,21
2019-03-12,남부권,PM25,주의보,2019-03-12,06:00,78,2019-03-12,17:00,20
2019-03-12,동부권,PM25,주의보,2019-03-12,09:00,85,2019-03-12,16:00,22
2019-03-12,북부권,PM25,주의보,2019-03-12,09:00,87,2019-03-12,15:00,31
2019-03-07,동부권,PM25,주의보,2019-03-07,04:00,70,2019-03-07,09:00,34
2019-03-07,중부권,PM25,주의보,2019-03-07,04:00,72,2019-03-07,19:00,33
2019-03-07,남부권,PM25,주의보,2019-03-07,11:00,71,2019-03-08,00:00,33
2019-03-06,북부권,PM25,주의보,2019-03-06,17:00,70,2019-03-07,18:00,33
2019-03-05,동부권,PM25,경보,2019-03-05,03:00,156,2019-03-07,04:00,70
2019-03-05,북부권,PM25,경보,2019-03-05,10:00,158,2019-03-06,17:00,70
2019-03-04,중부권,PM25,경보,2019-03-04,10:00,159,2019-03-07,04:00,72
2019-03-04,남부권,PM10,주의보,2019-03-04,04:00,153,2019-03-07,11:00,90
2019-03-04,북부권,PM10,주의보,2019-03-04,21:00,172,2019-03-06,17:00,94
2019-03-04,남부권,PM25,경보,2019-03-05,00:00,155,2019-03-07,11:00,71
2019-03-04,동부권,PM10,주의보,2019-03-04,09:00,150,2019-03-07,03:00,93
2019-03-03,동부권,PM25,주의보,2019-03-03,22:00,86,2019-03-05,03:00,156
2019-03-03,북부권,PM10,주의보,2019-03-04,00:00,160,2019-03-04,14:00,95
2019-03-03,중부권,PM10,주의보,2019-03-03,22:00,166,2019-03-07,04:00,94
2019-03-01,중부권,PM10,주의보,2019-03-01,10:00,168,2019-03-03,14:00,87
2019-02-28,남부권,PM10,주의보,2019-02-28,20:00,151,2019-03-03,15:00,96
2019-02-28,동부권,PM25,주의보,2019-02-28,15:00,85,2019-03-03,16:00,32
2019-02-28,중부권,PM25,주의보,2019-02-28,16:00,77,2019-03-04,10:00,159
2019-02-28,북부권,PM25,주의보,2019-02-28,16:00,84,2019-03-05,10:00,158
2019-02-28,남부권,PM25,주의보,2019-02-28,10:00,84,2019-03-05,00:00,155
2019-02-25,동부권,PM25,주의보,2019-02-25,08:00,79,2019-02-26,00:00,34
2019-02-24,남부권,PM25,주의보,2019-02-24,23:00,89,2019-02-26,16:00,32
2019-02-24,중부권,PM25,주의보,2019-02-24,22:00,90,2019-02-25,21:00,33
2019-02-22,중부권,PM25,주의보,2019-02-22,11:00,83,2019-02-23,14:00,29
2019-02-21,북부권,PM25,주의보,2019-02-21,10:00,77,2019-02-22,16:00,32
2019-02-20,동부권,PM25,주의보,2019-02-20,23:00,75,2019-02-23,13:00,23
2019-02-20,남부권,PM25,주의보,2019-02-20,21:00,81,2019-02-23,15:00,29
2019-02-07,남부권,PM25,주의보,2019-02-07,09:00,78,2019-02-07,13:00,24
2019-02-07,북부권,PM25,주의보,2019-02-07,07:00,79,2019-02-07,10:00,33
2019-02-07,동부권,PM25,주의보,2019-02-07,08:00,83,2019-02-07,12:00,26
2019-02-04,중부권,PM25,주의보,2019-02-04,03:00,79,2019-02-04,12:00,30
2018-12-22,동부권,PM25,주의보,2018-12-22,12:00,75,2018-12-23,12:00,33
2018-12-22,북부권,PM25,주의보,2018-12-22,11:00,78,2018-12-23,12:00,30
2018-12-21,중부권,PM25,주의보,2018-12-21,22:00,80,2018-12-23,08:00,31
2018-12-21,남부권,PM25,주의보,2018-12-21,22:00,77,2018-12-23,11:00,34
2018-12-20,북부권,PM25,주의보,2018-12-20,12:00,86,2018-12-20,16:00,33
2018-12-17,동부권,PM25,주의보,2018-12-17,11:00,80,2018-12-17,18:00,34
2018-12-17,중부권,PM25,주의보,2018-12-17,10:00,78,2018-12-17,16:00,24
2018-12-17,북부권,PM25,주의보,2018-12-17,11:00,93,2018-12-18,07:00,34
2018-11-28,중부권,PM10,주의보,2018-11-28,12:00,146,2018-11-28,14:00,96
2018-11-28,북부권,PM10,주의보,2018-11-28,13:00,133,2018-11-28,15:00,94
2018-11-27,북부권,PM25,주의보,2018-11-27,12:00,79,2018-11-28,05:00,34
2018-11-27,중부권,PM25,주의보,2018-11-27,20:00,79,2018-11-28,04:00,33
2018-11-27,북부권,PM10,경보,2018-11-27,20:00,346,2018-11-28,13:00,133
2018-11-27,중부권,PM10,주의보,2018-11-27,20:00,250,2018-11-27,22:00,337
2018-11-27,북부권,PM10,주의보,2018-11-27,19:00,300,2018-11-27,20:00,346
2018-11-27,동부권,PM25,주의보,2018-11-27,20:00,78,2018-11-28,03:00,33
2018-11-27,동부권,PM10,주의보,2018-11-27,22:00,258,2018-11-28,15:00,92
2018-11-27,중부권,PM10,경보,2018-11-27,22:00,337,2018-11-28,12:00,146
2018-11-27,남부권,PM10,주의보,2018-11-27,22:00,206,2018-11-28,16:00,97
2018-11-27,남부권,PM25,주의보,2018-11-27,20:00,81,2018-11-28,13:00,32
2018-11-16,남부권,PM25,주의보,2018-11-16,13:00,75,2018-11-17,01:00,31
2018-11-06,중부권,PM10,주의보,2018-11-06,22:00,150,2018-11-07,05:00,97
2018-11-06,남부권,PM25,주의보,2018-11-06,11:00,81,2018-11-08,02:00,33
2018-11-06,북부권,PM25,주의보,2018-11-06,11:00,77,2018-11-07,17:00,32
2018-11-06,중부권,PM25,주의보,2018-11-06,11:00,92,2018-11-08,01:00,34
2018-11-06,동부권,PM25,주의보,2018-11-06,17:00,83,2018-11-07,15:00,32
2018-11-04,남부권,PM25,주의보,2018-11-04,12:00,84,2018-11-04,16:00,33
2018-10-15,남부권,PM25,주의보,2018-10-15,22:00,79,2018-10-16,17:00,33
2018-10-15,중부권,PM25,주의보,2018-10-15,22:00,77,2018-10-16,07:00,33
2018-04-20,동부권,PM10,주의보,2018-04-20,19:00,152,2018-04-21,11:00,89
2018-04-15,동부권,PM10,주의보,2018-04-15,16:00,178,2018-04-15,19:00,96
2018-04-06,북부권,PM10,경보,2018-04-06,16:00,326,2018-04-06,22:00,133
2018-04-06,동부권,PM10,경보,2018-04-06,16:00,311,2018-04-06,22:00,135
2018-04-06,중부권,PM10,주의보,2018-04-06,14:00,233,2018-04-06,22:00,97
2018-04-06,북부권,PM10,주의보,2018-04-06,22:00,133,2018-04-07,01:00,73
2018-04-06,동부권,PM10,주의보,2018-04-06,22:00,135,2018-04-07,01:00,99
2018-04-06,동부권,PM10,주의보,2018-04-06,15:00,319,2018-04-06,16:00,311
2018-04-06,북부권,PM10,주의보,2018-04-06,15:00,303,2018-04-06,16:00,326
2018-04-06,남부권,PM10,주의보,2018-04-06,15:00,271,2018-04-07,00:00,98
2018-03-25,중부권,PM10,주의보,2018-03-25,13:00,172,2018-03-26,00:00,93
2018-03-25,남부권,PM10,주의보,2018-03-25,05:00,154,2018-03-25,18:00,97
2018-03-24,남부권,PM25,주의보,2018-03-24,10:00,95,2018-03-26,16:00,47
2018-03-24,북부권,PM25,주의보,2018-03-24,10:00,97,2018-03-26,18:00,44
2018-03-24,동부권,PM25,주의보,2018-03-24,10:00,91,2018-03-26,16:00,48
2018-03-24,중부권,PM25,주의보,2018-03-24,21:00,97,2018-03-26,16:00,45
2018-03-12,중부권,PM25,주의보,2018-03-12,15:00,94,2018-03-13,08:00,48
2018-03-12,중부권,PM10,주의보,2018-03-12,16:00,151,2018-03-13,03:00,98
2018-03-12,남부권,PM25,주의보,2018-03-12,20:00,97,2018-03-13,13:00,35
2018-03-12,동부권,PM25,주의보,2018-03-12,19:00,94,2018-03-13,13:00,41

